Session 1: Introduction
…
(optional) lemmatization

(optional) stemming

(optional) Stopword removal

(optional) tagging (discussed later)

Stop word removal

data(stop_words)
stop_words

# A tibble: 1,149 × 2
   word        lexicon
   <chr>       <chr>  
 1 a           SMART  
 2 a's         SMART  
 3 able        SMART  
 4 about       SMART  
 5 above       SMART  
 6 according   SMART  
 7 accordingly SMART  
 8 across      SMART  
 9 actually    SMART  
10 after       SMART  
# ℹ 1,139 more rows
…
#part 2
total_words <- book_words %>% 
  group_by(book) %>% 
  summarize(total = sum(n))

#part 3
book_words <- left_join(book_words, total_words)

#result
book_words

Analyzing word and document frequency: tf-idf

# A tibble: 40,379 × 4
   book              word      n  total
   <fct>             <chr> <int>  <int>
 1 Mansfield Park    the    6206 160460
 2 Mansfield Park    to     5475 160460
 3 Mansfield Park    and    5438 160460
 4 Emma              to     5239 160996
 5 Emma              the    5201 160996
 6 Emma              and    4896 160996
 7 Mansfield Park    of     4778 160460
 8 Pride & Prejudice the    4331 122204
 9 Emma              of     4291 160996
10 Pride & Prejudice to     4162 122204
# ℹ 40,369 more rows
…
The bind_tf_idf() function

# A tibble: 40,379 × 7
   book              word      n  total     tf   idf tf_idf
   <fct>             <chr> <int>  <int>  <dbl> <dbl>  <dbl>
 1 Mansfield Park    the    6206 160460 0.0387     0      0
 2 Mansfield Park    to     5475 160460 0.0341     0      0
 3 Mansfield Park    and    5438 160460 0.0339     0      0
 4 Emma              to     5239 160996 0.0325     0      0
 5 Emma              the    5201 160996 0.0323     0      0
 6 Emma              and    4896 160996 0.0304     0      0
 7 Mansfield Park    of     4778 160460 0.0298     0      0
 8 Pride & Prejudice the    4331 122204 0.0354     0      0
 9 Emma              of     4291 160996 0.0267     0      0
10 Pride & Prejudice to     4162 122204 0.0341     0      0
# ℹ 40,369 more rows

Inspect output

# A tibble: 40,379 × 6
   book                word          n      tf   idf  tf_idf
   <fct>               <chr>     <int>   <dbl> <dbl>   <dbl>
 1 Sense & Sensibility elinor      623 0.00519  1.79 0.00931
 2 Sense & Sensibility marianne    492 0.00410  1.79 0.00735
 3 Mansfield Park      crawford    493 0.00307  1.79 0.00551
 4 Pride & Prejudice   darcy       373 0.00305  1.79 0.00547
 5 Persuasion          elliot      254 0.00304  1.79 0.00544
 6 Emma                emma        786 0.00488  1.10 0.00536
 7 Northanger Abbey    tilney      196 0.00252  1.79 0.00452
 8 Emma                weston      389 0.00242  1.79 0.00433
 9 Pride & Prejudice   bennet      294 0.00241  1.79 0.00431
10 Persuasion          wentworth   191 0.00228  1.79 0.00409
# ℹ 40,369 more rows
…
Sentiment analysis using the tidytext approach

3 built-in lexicons (can import others and/or create your own)

AFINN from Finn Årup Nielsen,

bing from Bing Liu and collaborators, and

nrc from Saif Mohammad and Peter Turney.

get_sentiments("afinn")

# A tibble: 2,477 × 2
   word       value
   <chr>      <dbl>
 1 abandon       -2
 2 abandoned     -2
 3 abandons      -2
 4 abducted      -2
 5 abduction     -2
 6 abductions    -2
 7 abhor         -3
 8 abhorred      -3
 9 abhorrent     -3
10 abhors        -3
# ℹ 2,467 more rows

get_sentiments("bing")

# A tibble: 6,786 × 2
   word        sentiment
   <chr>       <chr>    
 1 2-faces     negative 
 2 abnormal    negative 
 3 abolish     negative 
 4 abominable  negative 
 5 abominably  negative 
 6 abominate   negative 
 7 abomination negative 
 8 abort       negative 
 9 aborted     negative 
10 aborts      negative 
# ℹ 6,776 more rows

get_sentiments("nrc")

# A tibble: 13,872 × 2
   word        sentiment
   <chr>       <chr>    
 1 abacus      trust    
 2 abandon     fear     
 3 abandon     negative 
 4 abandon     sadness  
 5 abandoned   anger    
 6 abandoned   fear     
 7 abandoned   negative 
 8 abandoned   sadness  
 9 abandonment anger    
10 abandonment fear     
# ℹ 13,862 more rows

Sentiment analysis with tidytext

nrc_sadness <- get_sentiments("nrc") |>  
  filter(sentiment == "sadness")

tidy_books |> 
  filter(book == "Emma") |> 
  inner_join(nrc_sadness) |> 
  count(word, sort = TRUE)

# A tibble: 341 × 2
   word           n
   <chr>      <int>
 1 doubt         98
 2 ill           72
 3 bad           60
 4 leave         58
 5 mother        57
 6 feeling       56
 7 impossible    41
 8 pain          34
 9 evil          33
10 danger        31
# ℹ 331 more rows
…
