Session 3: Topic Modelling
…
LDA topic modelling in R

ap_lda <- LDA(AssociatedPress, k = 5, control = list(seed = 1234))
ap_lda

A LDA_VEM topic model with 5 topics.

Word topic probabilities

ap_topics <- tidy(ap_lda, matrix = "beta")
ap_topics

# A tibble: 52,365 × 3
   topic term        beta
   <int> <chr>      <dbl>
 1     1 aaron   2.80e- 5
 2     2 aaron   8.47e- 9
 3     3 aaron   3.74e-18
 4     4 aaron   7.37e- 5
 5     5 aaron   1.81e- 7
 6     1 abandon 2.59e- 5
 7     2 abandon 7.12e- 5
 8     3 abandon 4.75e- 5
 9     4 abandon 1.86e-24
10     5 abandon 2.98e- 5
# ℹ 52,355 more rows
…
Document-topic probabilities

ap_documents <- tidy(ap_lda, matrix = "gamma")
ap_documents

# A tibble: 11,230 × 3
   document topic    gamma
      <int> <int>    <dbl>
 1        1     1 0.000293
 2        2     1 0.216   
 3        3     1 0.000302
 4        4     1 0.000372
 5        5     1 0.00116 
 6        6     1 0.000183
 7        7     1 0.728   
 8        8     1 0.0547  
 9        9     1 0.253   
10       10     1 0.0676  
# ℹ 11,220 more rows
…
Identify the topics most associated with a document

ap_documents_topics <- ap_documents |>  
  group_by(document) |>  
  slice_max(gamma, n = 2) %>% #specify 1, 2, 3, n for the number of topics associated with a document
  ungroup()

ap_documents_topics

# A tibble: 4,492 × 3
   document topic    gamma
      <int> <int>    <dbl>
 1        1     4 0.999   
 2        1     5 0.000293
 3        2     2 0.529   
 4        2     1 0.216   
 5        3     4 0.999   
 6        3     5 0.000302
 7        4     4 0.518   
 8        4     2 0.316   
 9        5     4 0.995   
10        5     1 0.00116 
# ℹ 4,482 more rows
…
all_books <- all_books |>  
  group_by(book, chapter) |> 
  summarise_at(vars(-group_cols()),  str_c, collapse=" ") |>  
  filter(chapter != 0) |> 
  select(-linenumber) |>  
  mutate(id = paste(as.character(book), as.character(chapter)))
all_books

setup data

# A tibble: 269 × 4
# Groups:   book [6]
   book                chapter text                                        id   
   <fct>                 <int> <chr>                                       <chr>
 1 Sense & Sensibility       1 "CHAPTER 1   The family of Dashwood had lo… Sens…
 2 Sense & Sensibility       2 "CHAPTER 2   Mrs. John Dashwood now instal… Sens…
 3 Sense & Sensibility       3 "CHAPTER 3   Mrs. Dashwood remained at Nor… Sens…
 4 Sense & Sensibility       4 "CHAPTER 4   \"What a pity it is, Elinor,\… Sens…
 5 Sense & Sensibility       5 "CHAPTER 5   No sooner was her answer disp… Sens…
 6 Sense & Sensibility       6 "CHAPTER 6   The first part of their journ… Sens…
 7 Sense & Sensibility       7 "CHAPTER 7   Barton Park was about half a … Sens…
 8 Sense & Sensibility       8 "CHAPTER 8   Mrs. Jennings was a widow wit… Sens…
 9 Sense & Sensibility       9 "CHAPTER 9   The Dashwoods were now settle… Sens…
10 Sense & Sensibility      10 "CHAPTER 10   Marianne's preserver, as Mar… Sens…
# ℹ 259 more rows
…
